SVM
…
One Hot Encoding for Chief_complain

imp_df<-imp_df %>% mutate(value = 1)  %>% spread(Chief_complain, value,  fill = 0 )

# In Chief_complain there were values called "??". Selecting variables that I am interested in:
norm<-imp_df%>%select(c(1,2,10:15,32:439))
norm

## # A tibble: 1,265 x 416
##      Sex   Age   DBP    HR    RR    BT Saturation KTAS_RN `abd pain`
##    <dbl> <dbl> <dbl> <dbl> <dbl> <dbl>      <dbl>   <dbl>      <dbl>
##  1     2    71   100    84    18  36.6      100         2          0
##  2     1    56    75    60    20  36.5       97.5       4          0
##  3     1    68    80   102    20  36.6       98         4          0
##  4     2    71    94    88    20  36.5       96.8       4          0
##  5     2    58    67    93    18  36.5       98.4       4          0
##  6     1    54    90    94    20  38.1       98         3          0
##  7     2    49    70    70    20  36.2       98         2          0
##  8     2    78    86    80    20  36         97.2       2          0
##  9     2    32    75    91    20  36.6       98.6       4          0
## 10     1    38    80    80    20  36.3       97         4          0
## # ... with 1,255 more rows, and 407 more variables: abd. Distension <dbl>,
## #   Abd. pain <dbl>, abdomen discomfort <dbl>, abdomen distension <dbl>,
## #   abdomen pain <dbl>, Abdominal pain (finding) <dbl>,
## #   abdominal pain, LUQ <dbl>, abdominal pain, periumbilical area <dbl>,
## #   abdominal pain, Rt <dbl>, abnormal lab. <dbl>,
## #   Abnormality, Visual Acuity <dbl>, acute delirium <dbl>,
## #   acute dyspnea <dbl>, acute epigastric pain <dbl>, alcohol smell <dbl>, ...
…
